%!PS-Adobe-3.0 EPSF-3.0
%%Creator: cairo 1.14.2 (http://cairographics.org)
%%CreationDate: Fri Nov  4 12:55:45 2016
%%Pages: 1
%%DocumentData: Clean7Bit
%%LanguageLevel: 2
%%BoundingBox: 0 -1 323 326
%%EndComments
%%BeginProlog
save
50 dict begin
/q { gsave } bind def
/Q { grestore } bind def
/cm { 6 array astore concat } bind def
/w { setlinewidth } bind def
/J { setlinecap } bind def
/j { setlinejoin } bind def
/M { setmiterlimit } bind def
/d { setdash } bind def
/m { moveto } bind def
/l { lineto } bind def
/c { curveto } bind def
/h { closepath } bind def
/re { exch dup neg 3 1 roll 5 3 roll moveto 0 rlineto
      0 exch rlineto 0 rlineto closepath } bind def
/S { stroke } bind def
/f { fill } bind def
/f* { eofill } bind def
/n { newpath } bind def
/W { clip } bind def
/W* { eoclip } bind def
/BT { } bind def
/ET { } bind def
/pdfmark where { pop globaldict /?pdfmark /exec load put }
    { globaldict begin /?pdfmark /pop load def /pdfmark
    /cleartomark load def end } ifelse
/BDC { mark 3 1 roll /BDC pdfmark } bind def
/EMC { mark /EMC pdfmark } bind def
/cairo_store_point { /cairo_point_y exch def /cairo_point_x exch def } def
/Tj { show currentpoint cairo_store_point } bind def
/TJ {
  {
    dup
    type /stringtype eq
    { show } { -0.001 mul 0 cairo_font_matrix dtransform rmoveto } ifelse
  } forall
  currentpoint cairo_store_point
} bind def
/cairo_selectfont { cairo_font_matrix aload pop pop pop 0 0 6 array astore
    cairo_font exch selectfont cairo_point_x cairo_point_y moveto } bind def
/Tf { pop /cairo_font exch def /cairo_font_matrix where
      { pop cairo_selectfont } if } bind def
/Td { matrix translate cairo_font_matrix matrix concatmatrix dup
      /cairo_font_matrix exch def dup 4 get exch 5 get cairo_store_point
      /cairo_font where { pop cairo_selectfont } if } bind def
/Tm { 2 copy 8 2 roll 6 array astore /cairo_font_matrix exch def
      cairo_store_point /cairo_font where { pop cairo_selectfont } if } bind def
/g { setgray } bind def
/rg { setrgbcolor } bind def
/d1 { setcachedevice } bind def
%%EndProlog
%%BeginSetup
%%EndSetup
%%Page: 1 1
%%BeginPageSetup
%%PageBoundingBox: 0 -1 323 326
%%EndPageSetup
q 0 -1 323 327 rectclip q
0 g
0.32 w
0 J
0 j
[] 0.0 d
4 M q 1 0 0 -1 0 325.120453 cm
80.16 4.961 m 80.16 324.961 l S Q
q 1 0 0 -1 0 325.120453 cm
160.16 4.961 m 160.16 324.961 l S Q
q 1 0 0 -1 0 325.120453 cm
240.16 4.961 m 240.16 324.961 l S Q
q 1 0 0 -1 0 325.120453 cm
0.16 84.961 m 320.16 84.961 l S Q
q 1 0 0 -1 0 325.120453 cm
0.16 164.961 m 320.16 164.961 l S Q
q 1 0 0 -1 0 325.120453 cm
0.16 244.961 m 320.16 244.961 l S Q
q 1 0 0 -1 0 325.120453 cm
0.16 4.961 320 320 re S Q
q 1 0 0 -1 0 325.120453 cm
80.16 4.961 m 80.16 324.961 l S Q
q 1 0 0 -1 0 325.120453 cm
160.16 4.961 m 160.16 324.961 l S Q
q 1 0 0 -1 0 325.120453 cm
240.16 4.961 m 240.16 324.961 l S Q
q 1 0 0 -1 0 325.120453 cm
0.16 84.961 m 320.16 84.961 l S Q
q 1 0 0 -1 0 325.120453 cm
0.16 164.961 m 320.16 164.961 l S Q
q 1 0 0 -1 0 325.120453 cm
0.16 244.961 m 320.16 244.961 l S Q
q 1 0 0 -1 0 325.120453 cm
0.16 4.961 320 320 re S Q
1.6 w
q 1 0 0 -1 0 325.120453 cm
79.59 244.961 m 79.59 2.676 l S Q
72.488 305.339 m 79.559 324.57 l 86.633 305.339 l 82.457 308.413 76.746
 308.394 72.488 305.339 c h
72.488 305.339 m f*
1.1 w
1 j
q 0 -1 -1 0 0 325.120453 cm
19.781 -72.488 m 0.551 -79.559 l 19.781 -86.633 l 16.707 -82.457 16.727
 -76.746 19.781 -72.488 c h
19.781 -72.488 m S Q
1.6 w
0 j
q 1 0 0 -1 0 325.120453 cm
78.445 246.102 m 319.59 246.102 l S Q
302.484 86.117 m 321.715 79.046 l 302.484 71.976 l 305.555 76.148 305.539
 81.863 302.484 86.117 c h
302.484 86.117 m f*
1.1 w
1 j
q -1 0 0 1 0 325.120453 cm
-302.484 -239.004 m -321.715 -246.074 l -302.484 -253.145 l -305.555 -248.973
 -305.539 -243.258 -302.484 -239.004 c h
-302.484 -239.004 m S Q
0.8 w
0 j
q 1 0 0 -1 0 325.120453 cm
239.59 244.961 m 79.016 84.391 l S Q
0.701961 g
161.25 118.761 m 161.25 156.753 l 198.965 119.05 l 219.707 98.316 236.676
 81.218 236.676 81.058 c 236.676 80.898 219.707 80.765 198.965 80.765 c 
161.25 80.765 l h
161.25 118.761 m f
81.25 120.195 m 81.25 159.624 l 158.965 159.624 l 158.965 80.765 l 81.25
 80.765 l h
81.25 120.195 m f
81.25 198.761 m 81.25 236.753 l 118.965 199.05 l 139.707 178.316 156.676
 161.218 156.676 161.058 c 156.676 160.898 139.707 160.765 118.965 160.765
 c 81.25 160.765 l h
81.25 198.761 m f
0 g
86.562 237.656 m 86.562 235.054 84.453 232.949 81.852 232.949 c 79.25 232.949
 77.141 235.054 77.141 237.656 c 77.141 240.257 79.25 242.367 81.852 242.367
 c 84.453 242.367 86.562 240.257 86.562 237.656 c h
86.562 237.656 m f
167.305 157.081 m 167.305 154.163 164.938 151.8 162.023 151.8 c 159.105
 151.8 156.742 154.163 156.742 157.081 c 156.742 159.999 159.105 162.363
 162.023 162.363 c 164.938 162.363 167.305 159.999 167.305 157.081 c h
167.305 157.081 m f
87.301 157.081 m 87.301 154.163 84.934 151.8 82.02 151.8 c 79.102 151.8
 76.738 154.163 76.738 157.081 c 76.738 159.999 79.102 162.363 82.02 162.363
 c 84.934 162.363 87.301 159.999 87.301 157.081 c h
87.301 157.081 m f
89.25 76.507 m 89.25 73.273 86.629 70.652 83.398 70.652 c 80.164 70.652
 77.543 73.273 77.543 76.507 c 77.543 79.738 80.164 82.359 83.398 82.359
 c 86.629 82.359 89.25 79.738 89.25 76.507 c h
89.25 76.507 m f
170.398 75.128 m 170.398 71.577 167.52 68.702 163.973 68.702 c 160.426 
68.702 157.551 71.577 157.551 75.128 c 157.551 78.675 160.426 81.55 163.973
 81.55 c 167.52 81.55 170.398 78.675 170.398 75.128 c h
170.398 75.128 m f
250.805 75.128 m 250.805 71.577 247.93 68.702 244.383 68.702 c 240.832 
68.702 237.957 71.577 237.957 75.128 c 237.957 78.675 240.832 81.55 244.383
 81.55 c 247.93 81.55 250.805 78.675 250.805 75.128 c h
250.805 75.128 m f
89.754 96.816 m 89.77 96.874 l 89.785 96.941 l 89.805 97.015 l 89.824 97.097
 l 89.852 97.187 l 89.879 97.281 l 89.906 97.382 l 89.938 97.484 l 89.977
 97.589 l 90.016 97.699 l 90.062 97.812 l 90.109 97.921 l 90.156 98.038 
l 90.211 98.152 l 90.273 98.265 l 90.336 98.382 l 90.406 98.492 l 90.473
 98.601 l 90.551 98.706 l 90.633 98.808 l 90.715 98.906 l 90.809 98.999 
l 90.906 99.085 l 91.004 99.167 l 91.109 99.242 l 91.227 99.304 l 91.281
 99.339 l 91.34 99.367 l 91.402 99.386 l 91.527 99.433 l 91.59 99.452 l 
91.66 99.464 l 91.73 99.48 l 91.797 99.488 l 91.871 99.499 l 91.945 99.503
 l 92.016 99.503 l 92.133 99.503 92.676 99.503 93.152 99.21 c 92.516 99.093
 92.059 98.523 92.059 97.976 c 92.059 97.617 92.309 97.175 92.926 97.175
 c 93.426 97.175 94.156 97.585 94.156 98.499 c 94.156 99.691 92.809 100.003
 92.035 100.003 c 90.711 100.003 89.91 98.792 89.641 98.269 c 89.066 99.773
 87.836 100.003 87.18 100.003 c 84.805 100.003 83.5 97.062 83.5 96.488 c
 83.5 96.261 83.727 96.261 83.777 96.261 c 83.957 96.261 84.031 96.312 84.07
 96.511 c 84.848 98.929 86.355 99.503 87.133 99.503 c 87.566 99.503 88.359
 99.3 88.359 97.976 c 88.359 97.273 87.973 95.738 87.133 92.546 c 86.766
 91.132 85.969 90.175 84.961 90.175 c 84.824 90.175 84.301 90.175 83.824
 90.472 c 84.398 90.581 84.895 91.058 84.895 91.702 c 84.895 92.316 84.398
 92.495 84.055 92.495 c 83.367 92.495 82.793 91.906 82.793 91.171 c 82.793
 90.128 83.938 89.671 84.938 89.671 c 86.449 89.671 87.266 91.269 87.336
 91.402 c 87.605 90.558 88.43 89.671 89.797 89.671 c 92.148 89.671 93.453
 92.609 93.453 93.183 c 93.453 93.413 93.25 93.413 93.176 93.413 c 92.973
 93.413 92.926 93.32 92.883 93.163 c 92.133 90.722 90.578 90.175 89.848 
90.175 c 88.953 90.175 88.586 90.902 88.586 91.679 c 88.586 92.183 88.723
 92.683 88.98 93.687 c h
89.754 96.816 m f*
103.398 103.253 m 103.391 103.577 l 103.383 103.89 l 103.371 104.191 l 
103.352 104.484 l 103.324 104.769 l 103.293 105.038 l 103.25 105.304 l 103.199
 105.562 l 103.141 105.812 l 103.07 106.05 l 102.992 106.288 l 102.906 106.519
 l 102.812 106.742 l 102.699 106.96 l 102.582 107.179 l 102.52 107.285 l
 102.449 107.386 l 101.953 108.124 100.969 108.761 99.688 108.761 c 95.988
 108.761 95.988 104.402 95.988 103.253 c 95.988 102.109 95.988 97.843 99.688
 97.843 c 99.688 98.292 l 98.961 98.292 97.984 98.722 97.664 100.035 c 97.445
 100.968 97.445 102.277 97.445 103.46 c 97.445 104.628 97.445 105.839 97.676
 106.714 c 98.016 107.976 99.039 108.312 99.688 108.312 c 100.555 108.312
 101.383 107.785 101.672 106.859 c 101.926 105.999 101.941 104.847 101.941
 103.46 c 101.941 102.277 101.941 101.101 101.734 100.097 c 101.414 98.648
 100.332 98.292 99.688 98.292 c 99.688 97.843 l 103.398 97.843 103.398 102.109
 103.398 103.253 c h
103.398 103.253 m f*
100.504 94.41 m 100.504 94.585 l 100.5 94.597 l 100.5 94.624 l 100.492 
94.64 l 100.492 94.663 l 100.488 94.675 l 100.488 94.683 l 100.484 94.695
 l 100.484 94.706 l 100.48 94.726 l 100.473 94.745 l 100.461 94.757 l 100.453
 94.773 l 100.441 94.785 l 100.434 94.8 l 100.422 94.808 l 100.406 94.816
 l 100.395 94.824 l 100.375 94.831 l 100.355 94.835 l 100.332 94.839 l 100.324
 94.843 l 100.316 94.843 l 100.301 94.851 l 100.277 94.851 l 100.266 94.855
 l 100.207 94.855 l 100.191 94.859 l 100.027 94.859 l 99 93.851 97.559 93.839
 96.898 93.839 c 96.898 93.265 l 97.285 93.265 98.336 93.265 99.207 93.706
 c 99.207 85.57 l 99.207 85.042 99.207 84.835 97.613 84.835 c 97.012 84.835
 l 97.012 84.261 l 97.297 84.277 99.258 84.327 99.852 84.327 c 100.348 84.327
 102.359 84.277 102.711 84.261 c 102.711 84.835 l 102.102 84.835 l 100.504
 84.835 100.504 85.042 100.504 85.57 c h
100.504 94.41 m f*
113.055 96.816 m 113.07 96.874 l 113.082 96.941 l 113.105 97.015 l 113.125
 97.097 l 113.152 97.187 l 113.18 97.281 l 113.207 97.382 l 113.238 97.484
 l 113.273 97.589 l 113.316 97.699 l 113.363 97.812 l 113.406 97.921 l 113.457
 98.038 l 113.512 98.152 l 113.574 98.265 l 113.637 98.382 l 113.699 98.492
 l 113.773 98.601 l 113.852 98.706 l 113.93 98.808 l 114.016 98.906 l 114.109
 98.999 l 114.203 99.085 l 114.305 99.167 l 114.41 99.242 l 114.523 99.304
 l 114.578 99.339 l 114.641 99.367 l 114.703 99.386 l 114.762 99.41 l 114.828
 99.433 l 114.891 99.452 l 114.961 99.464 l 115.027 99.48 l 115.098 99.488
 l 115.172 99.499 l 115.238 99.503 l 115.316 99.503 l 115.434 99.503 115.973
 99.503 116.453 99.21 c 115.816 99.093 115.359 98.523 115.359 97.976 c 115.359
 97.617 115.609 97.175 116.223 97.175 c 116.723 97.175 117.457 97.585 117.457
 98.499 c 117.457 99.691 116.109 100.003 115.336 100.003 c 114.012 100.003
 113.211 98.792 112.941 98.269 c 112.367 99.773 111.137 100.003 110.477 
100.003 c 108.105 100.003 106.801 97.062 106.801 96.488 c 106.801 96.261
 107.027 96.261 107.078 96.261 c 107.258 96.261 107.332 96.312 107.371 96.511
 c 108.145 98.929 109.656 99.503 110.426 99.503 c 110.867 99.503 111.66 
99.3 111.66 97.976 c 111.66 97.273 111.273 95.738 110.426 92.546 c 110.066
 91.132 109.27 90.175 108.262 90.175 c 108.121 90.175 107.602 90.175 107.125
 90.472 c 107.695 90.581 108.195 91.058 108.195 91.702 c 108.195 92.316 
107.695 92.495 107.355 92.495 c 106.668 92.495 106.094 91.906 106.094 91.171
 c 106.094 90.128 107.238 89.671 108.238 89.671 c 109.75 89.671 110.562 
91.269 110.637 91.402 c 110.906 90.558 111.73 89.671 113.098 89.671 c 115.449
 89.671 116.754 92.609 116.754 93.183 c 116.754 93.413 116.543 93.413 116.477
 93.413 c 116.273 93.413 116.223 93.32 116.184 93.163 c 115.434 90.722 113.879
 90.175 113.148 90.175 c 112.254 90.175 111.887 90.902 111.887 91.679 c 
111.887 92.183 112.023 92.683 112.281 93.687 c h
113.055 96.816 m f*
126.691 103.253 m 126.691 103.577 l 126.684 103.89 l 126.668 104.191 l 
126.652 104.484 l 126.625 104.769 l 126.594 105.038 l 126.547 105.304 l 
126.5 105.562 l 126.441 105.812 l 126.371 106.05 l 126.293 106.288 l 126.207
 106.519 l 126.109 106.742 l 126 106.96 l 125.883 107.179 l 125.816 107.285
 l 125.75 107.386 l 125.254 108.124 124.27 108.761 122.988 108.761 c 119.289
 108.761 119.289 104.402 119.289 103.253 c 119.289 102.109 119.289 97.843
 122.988 97.843 c 122.988 98.292 l 122.258 98.292 121.285 98.722 120.965
 100.035 c 120.738 100.968 120.738 102.277 120.738 103.46 c 120.738 104.628
 120.738 105.839 120.977 106.714 c 121.312 107.976 122.336 108.312 122.988
 108.312 c 123.852 108.312 124.684 107.785 124.973 106.859 c 125.227 105.999
 125.242 104.847 125.242 103.46 c 125.242 102.277 125.242 101.101 125.035
 100.097 c 124.715 98.648 123.633 98.292 122.988 98.292 c 122.988 97.843
 l 126.691 97.843 126.691 102.109 126.691 103.253 c h
126.691 103.253 m f*
126.516 87.163 m 125.973 87.163 l 125.93 86.816 125.762 85.874 125.559 
85.714 c 125.434 85.62 124.207 85.62 123.98 85.62 c 121.043 85.62 l 122.719
 87.101 123.273 87.546 124.234 88.296 c 125.414 89.242 126.516 90.23 126.516
 91.745 c 126.516 93.679 124.828 94.859 122.781 94.859 c 120.809 94.859 
119.461 93.472 119.461 92.007 c 119.461 91.187 120.148 91.109 120.312 91.109
 c 120.695 91.109 121.156 91.382 121.156 91.956 c 121.156 92.238 121.043
 92.796 120.211 92.796 c 120.707 93.929 121.793 94.277 122.543 94.277 c 
124.141 94.277 124.973 93.042 124.973 91.745 c 124.973 90.359 123.98 89.257
 123.469 88.687 c 119.625 84.886 l 119.461 84.742 119.461 84.706 119.461
 84.261 c 126.039 84.261 l h
126.516 87.163 m f*
169.059 97.191 m 169.07 97.257 l 169.09 97.327 l 169.109 97.406 l 169.129
 97.495 l 169.16 97.585 l 169.188 97.691 l 169.219 97.796 l 169.254 97.906
 l 169.293 98.015 l 169.336 98.132 l 169.383 98.253 l 169.434 98.37 l 169.484
 98.492 l 169.543 98.617 l 169.676 98.859 l 169.824 99.093 l 169.906 99.206
 l 169.992 99.312 l 170.082 99.417 l 170.18 99.515 l 170.281 99.609 l 170.387
 99.699 l 170.5 99.777 l 170.621 99.843 l 170.68 99.878 l 170.742 99.906
 l 170.812 99.929 l 170.875 99.956 l 170.941 99.98 l 171.012 99.999 l 171.086
 100.015 l 171.156 100.027 l 171.23 100.038 l 171.387 100.054 l 171.465 
100.054 l 171.586 100.054 172.164 100.054 172.672 99.742 c 171.996 99.62
 171.508 99.011 171.508 98.429 c 171.508 98.046 171.777 97.577 172.43 97.577
 c 172.965 97.577 173.738 98.011 173.738 98.984 c 173.738 100.253 172.309
 100.585 171.484 100.585 c 170.074 100.585 169.223 99.296 168.938 98.742
 c 168.328 100.339 167.016 100.585 166.32 100.585 c 163.789 100.585 162.402
 97.456 162.402 96.847 c 162.402 96.605 162.645 96.605 162.699 96.605 c 
162.891 96.605 162.969 96.656 163.012 96.87 c 163.836 99.445 165.441 100.054
 166.266 100.054 c 166.727 100.054 167.57 99.839 167.57 98.429 c 167.57 
97.679 167.16 96.046 166.266 92.652 c 165.875 91.148 165.027 90.128 163.957
 90.128 c 163.809 90.128 163.254 90.128 162.746 90.445 c 163.355 90.562 
163.887 91.07 163.887 91.753 c 163.887 92.41 163.355 92.597 162.992 92.597
 c 162.262 92.597 161.652 91.968 161.652 91.191 c 161.652 90.077 162.871
 89.593 163.93 89.593 c 165.539 89.593 166.406 91.292 166.484 91.433 c 166.773
 90.538 167.648 89.593 169.102 89.593 c 171.605 89.593 172.996 92.718 172.996
 93.327 c 172.996 93.574 172.773 93.574 172.695 93.574 c 172.484 93.574 
172.43 93.476 172.387 93.308 c 171.586 90.71 169.934 90.128 169.156 90.128
 c 168.203 90.128 167.816 90.902 167.816 91.73 c 167.816 92.265 167.961 
92.796 168.234 93.867 c h
169.059 97.191 m f*
180.492 109.429 m 180.492 109.613 l 180.488 109.628 l 180.488 109.656 l
 180.484 109.671 l 180.484 109.695 l 180.477 109.71 l 180.477 109.718 l 
180.473 109.73 l 180.473 109.745 l 180.469 109.765 l 180.457 109.785 l 180.449
 109.796 l 180.438 109.812 l 180.43 109.827 l 180.418 109.843 l 180.406 
109.851 l 180.391 109.863 l 180.375 109.867 l 180.336 109.882 l 180.312 
109.886 l 180.293 109.89 l 180.277 109.894 l 180.254 109.894 l 180.238 109.902
 l 180.176 109.902 l 180.16 109.906 l 179.984 109.906 l 178.895 108.831 
177.359 108.82 176.66 108.82 c 176.66 108.21 l 177.066 108.21 178.188 108.21
 179.113 108.675 c 179.113 100.023 l 179.113 99.456 179.113 99.238 177.418
 99.238 c 176.781 99.238 l 176.781 98.628 l 177.082 98.644 179.168 98.699
 179.801 98.699 c 180.328 98.699 182.465 98.644 182.84 98.628 c 182.84 99.238
 l 182.195 99.238 l 180.492 99.238 180.492 99.456 180.492 100.023 c h
180.492 109.429 m f*
180.492 94.636 m 180.492 94.82 l 180.488 94.835 l 180.488 94.863 l 180.484
 94.878 l 180.484 94.902 l 180.477 94.917 l 180.477 94.925 l 180.473 94.937
 l 180.473 94.952 l 180.469 94.972 l 180.457 94.992 l 180.449 95.003 l 180.438
 95.019 l 180.43 95.035 l 180.418 95.05 l 180.406 95.058 l 180.391 95.07
 l 180.375 95.074 l 180.336 95.089 l 180.312 95.093 l 180.305 95.097 l 180.293
 95.097 l 180.277 95.101 l 180.254 95.101 l 180.238 95.109 l 180.176 95.109
 l 180.16 95.113 l 179.984 95.113 l 178.895 94.038 177.359 94.027 176.66
 94.027 c 176.66 93.417 l 177.066 93.417 178.188 93.417 179.113 93.886 c
 179.113 85.23 l 179.113 84.667 179.113 84.445 177.418 84.445 c 176.781 
84.445 l 176.781 83.835 l 177.082 83.851 179.168 83.906 179.801 83.906 c
 180.328 83.906 182.465 83.851 182.84 83.835 c 182.84 84.445 l 182.195 84.445
 l 180.492 84.445 180.492 84.667 180.492 85.23 c h
180.492 94.636 m f*
193.848 97.191 m 193.863 97.257 l 193.879 97.327 l 193.902 97.406 l 193.922
 97.495 l 193.949 97.585 l 193.98 97.691 l 194.008 97.796 l 194.043 97.906
 l 194.082 98.015 l 194.125 98.132 l 194.176 98.253 l 194.223 98.37 l 194.277
 98.492 l 194.336 98.617 l 194.398 98.738 l 194.469 98.859 l 194.535 98.976
 l 194.613 99.093 l 194.695 99.206 l 194.777 99.312 l 194.871 99.417 l 194.969
 99.515 l 195.07 99.609 l 195.18 99.699 l 195.289 99.777 l 195.414 99.843
 l 195.473 99.878 l 195.535 99.906 l 195.602 99.929 l 195.664 99.956 l 195.734
 99.98 l 195.801 99.999 l 195.875 100.015 l 195.949 100.027 l 196.02 100.038
 l 196.098 100.046 l 196.172 100.054 l 196.254 100.054 l 196.379 100.054
 196.953 100.054 197.465 99.742 c 196.785 99.62 196.301 99.011 196.301 98.429
 c 196.301 98.046 196.566 97.577 197.219 97.577 c 197.75 97.577 198.531 
98.011 198.531 98.984 c 198.531 100.253 197.098 100.585 196.273 100.585 
c 194.867 100.585 194.016 99.296 193.727 98.742 c 193.117 100.339 191.809
 100.585 191.105 100.585 c 188.582 100.585 187.191 97.456 187.191 96.847
 c 187.191 96.605 187.438 96.605 187.488 96.605 c 187.68 96.605 187.758 
96.656 187.801 96.87 c 188.625 99.445 190.234 100.054 191.051 100.054 c 
191.52 100.054 192.363 99.839 192.363 98.429 c 192.363 97.679 191.953 96.046
 191.051 92.652 c 190.668 91.148 189.82 90.128 188.746 90.128 c 188.602 
90.128 188.047 90.128 187.539 90.445 c 188.148 90.562 188.68 91.07 188.68
 91.753 c 188.68 92.41 188.148 92.597 187.781 92.597 c 187.051 92.597 186.441
 91.968 186.441 91.191 c 186.441 90.077 187.66 89.593 188.723 89.593 c 190.332
 89.593 191.199 91.292 191.277 91.433 c 191.562 90.538 192.441 89.593 193.891
 89.593 c 196.398 89.593 197.785 92.718 197.785 93.327 c 197.785 93.574 
197.562 93.574 197.488 93.574 c 197.273 93.574 197.219 93.476 197.176 93.308
 c 196.379 90.71 194.727 90.128 193.945 90.128 c 192.996 90.128 192.605 
90.902 192.605 91.73 c 192.605 92.265 192.754 92.796 193.023 93.867 c h
193.848 97.191 m f*
208.359 104.042 m 208.359 104.39 l 208.348 104.722 l 208.336 105.042 l 
208.316 105.355 l 208.285 105.656 l 208.25 105.945 l 208.203 106.226 l 208.152
 106.499 l 208.09 106.765 l 208.016 107.019 l 207.934 107.273 l 207.844 
107.519 l 207.738 107.757 l 207.621 107.992 l 207.496 108.218 l 207.43 108.331
 l 207.355 108.445 l 206.828 109.226 205.781 109.906 204.418 109.906 c 200.48
 109.906 200.48 105.265 200.48 104.042 c 200.48 102.824 200.48 98.288 204.418
 98.288 c 204.418 98.765 l 203.641 98.765 202.605 99.226 202.262 100.617
 c 202.023 101.613 202.023 103.007 202.023 104.261 c 202.023 105.503 202.023
 106.796 202.277 107.726 c 202.633 109.066 203.727 109.429 204.418 109.429
 c 205.336 109.429 206.219 108.867 206.527 107.878 c 206.801 106.968 206.812
 105.738 206.812 104.261 c 206.812 103.007 206.812 101.753 206.594 100.687
 c 206.254 99.14 205.105 98.765 204.418 98.765 c 204.418 98.288 l 208.359
 98.288 208.359 102.824 208.359 104.042 c h
208.359 104.042 m f*
208.168 86.925 m 207.594 86.925 l 207.543 86.558 207.371 85.554 207.148
 85.382 c 207.02 85.285 205.711 85.285 205.473 85.285 c 202.348 85.285 l
 204.129 86.859 204.719 87.331 205.742 88.128 c 207 89.132 208.168 90.187
 208.168 91.8 c 208.168 93.855 206.375 95.113 204.199 95.113 c 202.098 95.113
 200.664 93.636 200.664 92.077 c 200.664 91.202 201.395 91.12 201.57 91.12
 c 201.977 91.12 202.469 91.413 202.469 92.023 c 202.469 92.324 202.348 
92.921 201.465 92.921 c 201.988 94.124 203.145 94.492 203.945 94.492 c 205.645
 94.492 206.527 93.179 206.527 91.8 c 206.527 90.324 205.473 89.152 204.93
 88.542 c 200.84 84.499 l 200.664 84.347 200.664 84.308 200.664 83.835 c
 207.66 83.835 l h
208.168 86.925 m f*
251.41 99.363 m 251.426 99.425 l 251.445 99.499 l 251.465 99.577 l 251.484
 99.667 l 251.516 99.761 l 251.543 99.863 l 251.574 99.972 l 251.609 100.077
 l 251.648 100.191 l 251.691 100.312 l 251.742 100.433 l 251.789 100.55 
l 251.844 100.675 l 251.902 100.796 l 251.965 100.921 l 252.035 101.042 
l 252.109 101.16 l 252.184 101.281 l 252.266 101.394 l 252.355 101.499 l
 252.445 101.609 l 252.543 101.706 l 252.645 101.8 l 252.754 101.89 l 252.867
 101.968 l 252.988 102.035 l 253.047 102.07 l 253.113 102.101 l 253.246 
102.148 l 253.312 102.175 l 253.383 102.195 l 253.457 102.21 l 253.605 102.234
 l 253.762 102.249 l 253.84 102.249 l 253.965 102.249 254.547 102.249 255.059
 101.933 c 254.375 101.812 253.883 101.195 253.883 100.609 c 253.883 100.222
 254.156 99.749 254.812 99.749 c 255.355 99.749 256.137 100.187 256.137 
101.171 c 256.137 102.449 254.691 102.785 253.859 102.785 c 252.438 102.785
 251.578 101.488 251.289 100.925 c 250.672 102.538 249.352 102.785 248.648
 102.785 c 246.094 102.785 244.695 99.628 244.695 99.011 c 244.695 98.765
 244.941 98.765 244.996 98.765 c 245.188 98.765 245.266 98.82 245.309 99.038
 c 246.141 101.632 247.762 102.249 248.594 102.249 c 249.062 102.249 249.91
 102.031 249.91 100.609 c 249.91 99.855 249.5 98.206 248.594 94.781 c 248.199
 93.261 247.344 92.23 246.262 92.23 c 246.117 92.23 245.555 92.23 245.043
 92.55 c 245.656 92.667 246.195 93.179 246.195 93.874 c 246.195 94.535 245.656
 94.726 245.289 94.726 c 244.551 94.726 243.938 94.089 243.938 93.304 c 
243.938 92.183 245.168 91.691 246.238 91.691 c 247.859 91.691 248.734 93.406
 248.816 93.55 c 249.105 92.644 249.988 91.691 251.457 91.691 c 253.984 
91.691 255.383 94.847 255.383 95.46 c 255.383 95.706 255.164 95.706 255.086
 95.706 c 254.867 95.706 254.812 95.609 254.77 95.441 c 253.965 92.824 252.297
 92.23 251.508 92.23 c 250.551 92.23 250.156 93.015 250.156 93.851 c 250.156
 94.39 250.305 94.925 250.582 96.003 c h
251.41 99.363 m f*
265.863 103.929 m 265.281 103.929 l 265.234 103.554 265.055 102.538 264.836
 102.37 c 264.707 102.273 263.383 102.273 263.145 102.273 c 259.988 102.273
 l 261.785 103.863 262.387 104.339 263.414 105.144 c 264.684 106.156 265.863
 107.218 265.863 108.847 c 265.863 110.921 264.055 112.191 261.855 112.191
 c 259.734 112.191 258.289 110.699 258.289 109.128 c 258.289 108.245 259.027
 108.163 259.203 108.163 c 259.613 108.163 260.109 108.456 260.109 109.074
 c 260.109 109.378 259.988 109.976 259.098 109.976 c 259.629 111.191 260.793
 111.566 261.598 111.566 c 263.316 111.566 264.207 110.238 264.207 108.847
 c 264.207 107.359 263.145 106.175 262.594 105.562 c 258.469 101.48 l 258.289
 101.327 258.289 101.288 258.289 100.812 c 265.352 100.812 l h
265.863 103.929 m f*
262.953 96.781 m 262.953 96.968 l 262.945 96.98 l 262.945 97.011 l 262.941
 97.027 l 262.941 97.05 l 262.938 97.066 l 262.938 97.074 l 262.934 97.085
 l 262.934 97.101 l 262.918 97.14 l 262.906 97.156 l 262.898 97.167 l 262.887
 97.183 l 262.879 97.199 l 262.863 97.206 l 262.848 97.218 l 262.832 97.222
 l 262.812 97.234 l 262.793 97.238 l 262.77 97.242 l 262.762 97.245 l 262.75
 97.245 l 262.734 97.253 l 262.711 97.253 l 262.695 97.257 l 262.633 97.257
 l 262.617 97.261 l 262.441 97.261 l 261.34 96.179 259.789 96.163 259.082
 96.163 c 259.082 95.55 l 259.496 95.55 260.625 95.55 261.559 96.023 c 261.559
 87.288 l 261.559 86.718 261.559 86.499 259.848 86.499 c 259.203 86.499 
l 259.203 85.882 l 259.508 85.898 261.613 85.952 262.254 85.952 c 262.785
 85.952 264.941 85.898 265.32 85.882 c 265.32 86.499 l 264.668 86.499 l 
262.953 86.499 262.953 86.718 262.953 87.288 c h
262.953 96.781 m f*
276.43 99.363 m 276.445 99.425 l 276.461 99.499 l 276.484 99.577 l 276.504
 99.667 l 276.531 99.761 l 276.562 99.863 l 276.594 99.972 l 276.625 100.077
 l 276.664 100.191 l 276.758 100.433 l 276.809 100.55 l 276.863 100.675 
l 276.922 100.796 l 276.984 100.921 l 277.055 101.042 l 277.121 101.16 l
 277.203 101.281 l 277.285 101.394 l 277.367 101.499 l 277.461 101.609 l
 277.562 101.706 l 277.664 101.8 l 277.773 101.89 l 277.887 101.968 l 278.008
 102.035 l 278.066 102.07 l 278.133 102.101 l 278.266 102.148 l 278.332 
102.175 l 278.402 102.195 l 278.477 102.21 l 278.551 102.222 l 278.621 102.234
 l 278.703 102.242 l 278.773 102.249 l 278.859 102.249 l 278.98 102.249 
279.562 102.249 280.078 101.933 c 279.395 101.812 278.902 101.195 278.902
 100.609 c 278.902 100.222 279.172 99.749 279.832 99.749 c 280.367 99.749
 281.156 100.187 281.156 101.171 c 281.156 102.449 279.711 102.785 278.879
 102.785 c 277.457 102.785 276.598 101.488 276.309 100.925 c 275.691 102.538
 274.371 102.785 273.66 102.785 c 271.113 102.785 269.711 99.628 269.711
 99.011 c 269.711 98.765 269.957 98.765 270.012 98.765 c 270.203 98.765 
270.285 98.82 270.328 99.038 c 271.16 101.632 272.781 102.249 273.605 102.249
 c 274.078 102.249 274.93 102.031 274.93 100.609 c 274.93 99.855 274.516
 98.206 273.605 94.781 c 273.219 93.261 272.363 92.23 271.281 92.23 c 271.133
 92.23 270.574 92.23 270.062 92.55 c 270.676 92.667 271.211 93.179 271.211
 93.874 c 271.211 94.535 270.676 94.726 270.309 94.726 c 269.57 94.726 268.957
 94.089 268.957 93.304 c 268.957 92.183 270.184 91.691 271.258 91.691 c 
272.879 91.691 273.754 93.406 273.832 93.55 c 274.125 92.644 275.008 91.691
 276.473 91.691 c 279 91.691 280.402 94.847 280.402 95.46 c 280.402 95.706
 280.176 95.706 280.102 95.706 c 279.887 95.706 279.832 95.609 279.789 95.441
 c 278.98 92.824 277.316 92.23 276.527 92.23 c 275.57 92.23 275.176 93.015
 275.176 93.851 c 275.176 94.39 275.324 94.925 275.598 96.003 c h
276.43 99.363 m f*
291.074 106.277 m 291.074 106.624 l 291.062 106.96 l 291.047 107.285 l 
291.027 107.597 l 291 107.902 l 290.965 108.195 l 290.914 108.48 l 290.867
 108.753 l 290.801 109.023 l 290.73 109.281 l 290.645 109.535 l 290.551 
109.781 l 290.449 110.023 l 290.332 110.257 l 290.203 110.488 l 290.133 
110.601 l 290.059 110.714 l 289.527 111.507 288.473 112.191 287.094 112.191
 c 283.121 112.191 283.121 107.511 283.121 106.277 c 283.121 105.046 283.121
 100.468 287.094 100.468 c 287.094 100.949 l 286.312 100.949 285.266 101.413
 284.922 102.82 c 284.68 103.82 284.68 105.226 284.68 106.495 c 284.68 107.749
 284.68 109.054 284.938 109.992 c 285.297 111.343 286.398 111.71 287.094
 111.71 c 288.023 111.71 288.914 111.144 289.223 110.144 c 289.5 109.226
 289.516 107.988 289.516 106.495 c 289.516 105.226 289.516 103.964 289.293
 102.886 c 288.949 101.327 287.789 100.949 287.094 100.949 c 287.094 100.468
 l 291.074 100.468 291.074 105.046 291.074 106.277 c h
291.074 106.277 m f*
290.883 88.999 m 290.301 88.999 l 290.25 88.628 290.074 87.613 289.855 
87.441 c 289.723 87.343 288.402 87.343 288.16 87.343 c 285.004 87.343 l 
286.805 88.933 287.398 89.41 288.434 90.214 c 289.699 91.23 290.883 92.292
 290.883 93.917 c 290.883 95.992 289.07 97.261 286.875 97.261 c 284.754 
97.261 283.309 95.773 283.309 94.199 c 283.309 93.32 284.047 93.234 284.223
 93.234 c 284.633 93.234 285.129 93.531 285.129 94.144 c 285.129 94.449 
285.004 95.05 284.117 95.05 c 284.645 96.265 285.812 96.636 286.617 96.636
 c 288.336 96.636 289.223 95.308 289.223 93.917 c 289.223 92.429 288.16 
91.249 287.613 90.632 c 283.484 86.554 l 283.309 86.402 283.309 86.359 283.309
 85.882 c 290.371 85.882 l h
290.883 88.999 m f*
90.199 176.05 m 90.215 176.113 l 90.234 176.187 l 90.254 176.265 l 90.273
 176.351 l 90.301 176.445 l 90.332 176.546 l 90.359 176.656 l 90.395 176.761
 l 90.434 176.874 l 90.477 176.992 l 90.527 177.113 l 90.574 177.23 l 90.629
 177.351 l 90.688 177.472 l 90.75 177.593 l 90.82 177.714 l 90.891 177.831
 l 90.965 177.949 l 91.047 178.062 l 91.137 178.167 l 91.223 178.277 l 91.32
 178.374 l 91.422 178.468 l 91.531 178.554 l 91.641 178.632 l 91.766 178.699
 l 91.824 178.734 l 91.887 178.765 l 92.086 178.835 l 92.152 178.855 l 92.301
 178.886 l 92.375 178.894 l 92.453 178.906 l 92.527 178.91 l 92.605 178.91
 l 92.73 178.91 93.309 178.91 93.816 178.597 c 93.137 178.476 92.652 177.867
 92.652 177.288 c 92.652 176.902 92.918 176.433 93.57 176.433 c 94.109 176.433
 94.883 176.867 94.883 177.843 c 94.883 179.109 93.449 179.441 92.625 179.441
 c 91.219 179.441 90.367 178.156 90.078 177.601 c 89.469 179.199 88.16 179.441
 87.461 179.441 c 84.934 179.441 83.543 176.312 83.543 175.702 c 83.543 
175.46 83.789 175.46 83.84 175.46 c 84.031 175.46 84.109 175.515 84.152 
175.73 c 84.977 178.3 86.586 178.91 87.41 178.91 c 87.871 178.91 88.715 
178.695 88.715 177.288 c 88.715 176.538 88.305 174.906 87.41 171.507 c 87.02
 170.003 86.172 168.984 85.098 168.984 c 84.953 168.984 84.398 168.984 83.891
 169.3 c 84.5 169.417 85.031 169.925 85.031 170.613 c 85.031 171.265 84.5
 171.456 84.133 171.456 c 83.402 171.456 82.793 170.827 82.793 170.046 c
 82.793 168.937 84.012 168.449 85.074 168.449 c 86.684 168.449 87.551 170.148
 87.629 170.292 c 87.914 169.394 88.793 168.449 90.242 168.449 c 92.75 168.449
 94.137 171.577 94.137 172.187 c 94.137 172.429 93.918 172.429 93.84 172.429
 c 93.625 172.429 93.57 172.331 93.527 172.167 c 92.73 169.57 91.078 168.984
 90.297 168.984 c 89.348 168.984 88.957 169.761 88.957 170.589 c 88.957 
171.124 89.105 171.656 89.375 172.722 c h
90.199 176.05 m f*
104.715 182.902 m 104.711 183.245 l 104.699 183.577 l 104.688 183.898 l
 104.668 184.21 l 104.637 184.515 l 104.602 184.8 l 104.559 185.081 l 104.504
 185.355 l 104.441 185.624 l 104.371 185.878 l 104.285 186.132 l 104.195
 186.374 l 104.09 186.613 l 103.973 186.847 l 103.848 187.077 l 103.781 
187.187 l 103.707 187.3 l 103.18 188.085 102.133 188.761 100.77 188.761 
c 96.832 188.761 96.832 184.124 96.832 182.902 c 96.832 181.683 96.832 177.148
 100.77 177.148 c 100.77 177.624 l 99.992 177.624 98.957 178.081 98.613 
179.476 c 98.383 180.468 98.383 181.863 98.383 183.12 c 98.383 184.363 98.383
 185.652 98.629 186.585 c 98.988 187.925 100.078 188.285 100.77 188.285 
c 101.688 188.285 102.57 187.726 102.879 186.734 c 103.152 185.824 103.164
 184.597 103.164 183.12 c 103.164 181.863 103.164 180.609 102.945 179.542
 c 102.605 177.999 101.457 177.624 100.77 177.624 c 100.77 177.148 l 104.715
 177.148 104.715 181.683 104.715 182.902 c h
104.715 182.902 m f*
101.637 173.492 m 101.637 173.675 l 101.633 173.691 l 101.633 173.722 l
 101.625 173.734 l 101.625 173.761 l 101.621 173.773 l 101.621 173.785 l
 101.617 173.792 l 101.617 173.808 l 101.613 173.827 l 101.602 173.847 l
 101.594 173.863 l 101.582 173.878 l 101.574 173.89 l 101.562 173.906 l 
101.547 173.917 l 101.535 173.925 l 101.52 173.929 l 101.5 173.941 l 101.48
 173.945 l 101.457 173.949 l 101.445 173.956 l 101.438 173.956 l 101.422
 173.96 l 101.398 173.96 l 101.383 173.964 l 101.32 173.964 l 101.305 173.968
 l 101.129 173.968 l 100.039 172.898 98.504 172.882 97.801 172.882 c 97.801
 172.273 l 98.211 172.273 99.332 172.273 100.258 172.742 c 100.258 164.089
 l 100.258 163.523 100.258 163.304 98.562 163.304 c 97.922 163.304 l 97.922
 162.695 l 98.227 162.71 100.309 162.761 100.945 162.761 c 101.469 162.761
 103.609 162.71 103.984 162.695 c 103.984 163.304 l 103.336 163.304 l 101.637
 163.304 101.637 163.523 101.637 164.089 c h
101.637 173.492 m f*
114.992 176.05 m 115.004 176.113 l 115.02 176.187 l 115.043 176.265 l 115.062
 176.351 l 115.094 176.445 l 115.121 176.546 l 115.152 176.656 l 115.188
 176.761 l 115.227 176.874 l 115.27 176.992 l 115.316 177.113 l 115.367 
177.23 l 115.477 177.472 l 115.609 177.714 l 115.68 177.831 l 115.758 177.949
 l 115.84 178.062 l 115.922 178.167 l 116.016 178.277 l 116.113 178.374 
l 116.215 178.468 l 116.32 178.554 l 116.434 178.632 l 116.555 178.699 l
 116.613 178.734 l 116.676 178.765 l 116.746 178.788 l 116.809 178.812 l
 116.875 178.835 l 116.945 178.855 l 117.02 178.87 l 117.09 178.886 l 117.164
 178.894 l 117.242 178.906 l 117.316 178.91 l 117.398 178.91 l 117.52 178.91
 118.094 178.91 118.605 178.597 c 117.93 178.476 117.441 177.867 117.441
 177.288 c 117.441 176.902 117.711 176.433 118.363 176.433 c 118.895 176.433
 119.672 176.867 119.672 177.843 c 119.672 179.109 118.242 179.441 117.418
 179.441 c 116.008 179.441 115.156 178.156 114.871 177.601 c 114.262 179.199
 112.949 179.441 112.246 179.441 c 109.723 179.441 108.336 176.312 108.336
 175.702 c 108.336 175.46 108.578 175.46 108.633 175.46 c 108.824 175.46
 108.902 175.515 108.945 175.73 c 109.77 178.3 111.375 178.91 112.195 178.91
 c 112.664 178.91 113.504 178.695 113.504 177.288 c 113.504 176.538 113.098
 174.906 112.195 171.507 c 111.809 170.003 110.961 168.984 109.891 168.984
 c 109.742 168.984 109.188 168.984 108.68 169.3 c 109.289 169.417 109.82
 169.925 109.82 170.613 c 109.82 171.265 109.289 171.456 108.926 171.456
 c 108.195 171.456 107.586 170.827 107.586 170.046 c 107.586 168.937 108.805
 168.449 109.867 168.449 c 111.473 168.449 112.34 170.148 112.418 170.292
 c 112.707 169.394 113.582 168.449 115.035 168.449 c 117.539 168.449 118.93
 171.577 118.93 172.187 c 118.93 172.429 118.703 172.429 118.629 172.429
 c 118.418 172.429 118.363 172.331 118.32 172.167 c 117.52 169.57 115.867
 168.984 115.09 168.984 c 114.137 168.984 113.75 169.761 113.75 170.589 
c 113.75 171.124 113.895 171.656 114.168 172.722 c h
114.992 176.05 m f*
126.426 188.285 m 126.426 188.456 l 126.422 188.468 l 126.422 188.515 l
 126.418 188.527 l 126.418 188.554 l 126.414 188.566 l 126.414 188.577 l
 126.406 188.585 l 126.406 188.601 l 126.398 188.62 l 126.395 188.64 l 126.383
 188.656 l 126.375 188.671 l 126.363 188.683 l 126.355 188.699 l 126.34 
188.706 l 126.324 188.718 l 126.309 188.722 l 126.289 188.734 l 126.27 188.738
 l 126.246 188.742 l 126.227 188.745 l 126.211 188.753 l 126.188 188.753
 l 126.172 188.757 l 126.109 188.757 l 126.094 188.761 l 125.922 188.761
 l 124.828 187.691 123.289 187.675 122.594 187.675 c 122.594 187.066 l 123
 187.066 124.121 187.066 125.047 187.535 c 125.047 178.882 l 125.047 178.316
 125.047 178.097 123.352 178.097 c 122.715 178.097 l 122.715 177.488 l 123.016
 177.503 125.102 177.554 125.734 177.554 c 126.262 177.554 128.398 177.503
 128.77 177.488 c 128.77 178.097 l 128.129 178.097 l 126.426 178.097 126.426
 178.316 126.426 178.882 c h
126.426 188.285 m f*
129.312 165.785 m 128.734 165.785 l 128.688 165.413 128.512 164.41 128.293
 164.238 c 128.16 164.14 126.855 164.14 126.617 164.14 c 123.488 164.14 
l 125.273 165.714 125.863 166.187 126.883 166.988 c 128.141 167.992 129.312
 169.042 129.312 170.656 c 129.312 172.71 127.52 173.968 125.34 173.968 
c 123.238 173.968 121.809 172.492 121.809 170.933 c 121.809 170.062 122.539
 169.98 122.715 169.98 c 123.117 169.98 123.609 170.273 123.609 170.878 
c 123.609 171.183 123.488 171.777 122.605 171.777 c 123.133 172.98 124.289
 173.351 125.086 173.351 c 126.789 173.351 127.668 172.035 127.668 170.656
 c 127.668 169.179 126.617 168.011 126.07 167.402 c 121.984 163.359 l 121.809
 163.206 121.809 163.167 121.809 162.695 c 128.805 162.695 l h
129.312 165.785 m f*
172.812 177.777 m 172.824 177.843 l 172.848 177.921 l 172.867 178.003 l
 172.887 178.093 l 172.918 178.191 l 172.949 178.296 l 172.977 178.41 l 
173.016 178.519 l 173.055 178.636 l 173.102 178.761 l 173.152 178.886 l 
173.203 179.007 l 173.258 179.136 l 173.32 179.265 l 173.387 179.39 l 173.457
 179.519 l 173.531 179.64 l 173.609 179.761 l 173.695 179.878 l 173.789 
179.992 l 173.879 180.101 l 173.98 180.202 l 174.086 180.3 l 174.199 180.394
 l 174.316 180.472 l 174.441 180.546 l 174.504 180.581 l 174.57 180.613 
l 174.641 180.636 l 174.707 180.663 l 174.777 180.687 l 174.852 180.706 
l 174.926 180.722 l 175.004 180.738 l 175.078 180.749 l 175.242 180.765 
l 175.324 180.765 l 175.449 180.765 176.055 180.765 176.586 180.437 c 175.879
 180.312 175.367 179.675 175.367 179.07 c 175.367 178.667 175.648 178.179
 176.332 178.179 c 176.891 178.179 177.699 178.632 177.699 179.648 c 177.699
 180.972 176.203 181.32 175.344 181.32 c 173.875 181.32 172.984 179.976 
172.684 179.394 c 172.047 181.062 170.68 181.32 169.953 181.32 c 167.312
 181.32 165.863 178.054 165.863 177.417 c 165.863 177.163 166.117 177.163
 166.172 177.163 c 166.371 177.163 166.453 177.218 166.5 177.441 c 167.359
 180.128 169.035 180.765 169.895 180.765 c 170.379 180.765 171.258 180.538
 171.258 179.07 c 171.258 178.288 170.832 176.581 169.895 173.038 c 169.488
 171.468 168.605 170.402 167.484 170.402 c 167.332 170.402 166.754 170.402
 166.223 170.734 c 166.859 170.855 167.414 171.386 167.414 172.101 c 167.414
 172.785 166.859 172.984 166.477 172.984 c 165.715 172.984 165.078 172.327
 165.078 171.511 c 165.078 170.351 166.352 169.843 167.461 169.843 c 169.137
 169.843 170.043 171.62 170.125 171.765 c 170.426 170.831 171.34 169.843
 172.855 169.843 c 175.469 169.843 176.922 173.109 176.922 173.745 c 176.922
 173.999 176.691 173.999 176.609 173.999 c 176.387 173.999 176.332 173.898
 176.285 173.726 c 175.449 171.015 173.727 170.402 172.914 170.402 c 171.922
 170.402 171.516 171.21 171.516 172.077 c 171.516 172.636 171.668 173.191
 171.949 174.304 c h
172.812 177.777 m f*
184.746 190.55 m 184.746 190.742 l 184.742 190.757 l 184.742 190.788 l 
184.738 190.804 l 184.738 190.827 l 184.73 190.843 l 184.73 190.855 l 184.727
 190.863 l 184.727 190.878 l 184.723 190.902 l 184.711 190.921 l 184.703
 190.937 l 184.68 190.968 l 184.672 190.98 l 184.641 191.003 l 184.625 191.007
 l 184.605 191.019 l 184.586 191.023 l 184.559 191.027 l 184.539 191.031
 l 184.523 191.038 l 184.5 191.038 l 184.484 191.042 l 184.418 191.042 l
 184.402 191.046 l 184.219 191.046 l 183.078 189.929 181.477 189.913 180.746
 189.913 c 180.746 189.277 l 181.172 189.277 182.344 189.277 183.309 189.765
 c 183.309 180.734 l 183.309 180.144 183.309 179.913 181.539 179.913 c 180.871
 179.913 l 180.871 179.277 l 181.188 179.292 183.363 179.351 184.023 179.351
 c 184.574 179.351 186.809 179.292 187.199 179.277 c 187.199 179.913 l 186.523
 179.913 l 184.746 179.913 184.746 180.144 184.746 180.734 c h
184.746 190.55 m f*
184.746 175.109 m 184.746 175.3 l 184.742 175.316 l 184.742 175.347 l 184.738
 175.363 l 184.738 175.386 l 184.73 175.402 l 184.73 175.413 l 184.727 175.425
 l 184.727 175.437 l 184.723 175.46 l 184.711 175.48 l 184.703 175.495 l
 184.68 175.527 l 184.672 175.538 l 184.641 175.562 l 184.625 175.566 l 
184.605 175.577 l 184.586 175.581 l 184.559 175.585 l 184.551 175.589 l 
184.539 175.589 l 184.523 175.597 l 184.5 175.597 l 184.484 175.601 l 184.418
 175.601 l 184.402 175.605 l 184.219 175.605 l 183.078 174.488 181.477 174.472
 180.746 174.472 c 180.746 173.835 l 181.172 173.835 182.344 173.835 183.309
 174.324 c 183.309 165.292 l 183.309 164.702 183.309 164.472 181.539 164.472
 c 180.871 164.472 l 180.871 163.835 l 181.188 163.851 183.363 163.91 184.023
 163.91 c 184.574 163.91 186.809 163.851 187.199 163.835 c 187.199 164.472
 l 186.523 164.472 l 184.746 164.472 184.746 164.702 184.746 165.292 c h
184.746 175.109 m f*
198.688 177.777 m 198.703 177.843 l 198.719 177.921 l 198.746 178.003 l
 198.766 178.093 l 198.797 178.191 l 198.824 178.296 l 198.855 178.41 l 
198.891 178.519 l 198.934 178.636 l 198.977 178.761 l 199.027 178.886 l 
199.078 179.007 l 199.195 179.265 l 199.262 179.39 l 199.336 179.519 l 199.406
 179.64 l 199.488 179.761 l 199.574 179.878 l 199.66 179.992 l 199.758 180.101
 l 199.859 180.202 l 199.965 180.3 l 200.078 180.394 l 200.195 180.472 l
 200.32 180.546 l 200.383 180.581 l 200.449 180.613 l 200.52 180.636 l 200.586
 180.663 l 200.656 180.687 l 200.727 180.706 l 200.805 180.722 l 200.879
 180.738 l 200.957 180.749 l 201.039 180.757 l 201.113 180.765 l 201.199
 180.765 l 201.328 180.765 201.93 180.765 202.461 180.437 c 201.754 180.312
 201.246 179.675 201.246 179.07 c 201.246 178.667 201.527 178.179 202.207
 178.179 c 202.762 178.179 203.574 178.632 203.574 179.648 c 203.574 180.972
 202.082 181.32 201.223 181.32 c 199.75 181.32 198.863 179.976 198.562 179.394
 c 197.926 181.062 196.559 181.32 195.824 181.32 c 193.191 181.32 191.742
 178.054 191.742 177.417 c 191.742 177.163 191.996 177.163 192.051 177.163
 c 192.25 177.163 192.332 177.218 192.375 177.441 c 193.234 180.128 194.914
 180.765 195.77 180.765 c 196.258 180.765 197.137 180.538 197.137 179.07
 c 197.137 178.288 196.711 176.581 195.77 173.038 c 195.367 171.468 194.48
 170.402 193.363 170.402 c 193.211 170.402 192.633 170.402 192.102 170.734
 c 192.738 170.855 193.293 171.386 193.293 172.101 c 193.293 172.785 192.738
 172.984 192.355 172.984 c 191.594 172.984 190.957 172.327 190.957 171.511
 c 190.957 170.351 192.23 169.843 193.34 169.843 c 195.016 169.843 195.922
 171.62 196.004 171.765 c 196.305 170.831 197.219 169.843 198.734 169.843
 c 201.348 169.843 202.797 173.109 202.797 173.745 c 202.797 173.999 202.562
 173.999 202.488 173.999 c 202.266 173.999 202.207 173.898 202.164 173.726
 c 201.328 171.015 199.605 170.402 198.789 170.402 c 197.797 170.402 197.391
 171.21 197.391 172.077 c 197.391 172.636 197.543 173.191 197.828 174.304
 c h
198.688 177.777 m f*
210.625 190.55 m 210.625 190.726 l 210.621 190.742 l 210.621 190.788 l 
210.613 190.804 l 210.613 190.827 l 210.609 190.843 l 210.609 190.855 l 
210.605 190.863 l 210.605 190.878 l 210.594 190.902 l 210.59 190.921 l 210.578
 190.937 l 210.57 190.952 l 210.559 190.968 l 210.551 190.98 l 210.52 191.003
 l 210.504 191.007 l 210.484 191.019 l 210.438 191.027 l 210.418 191.031
 l 210.402 191.038 l 210.375 191.038 l 210.359 191.042 l 210.293 191.042
 l 210.281 191.046 l 210.098 191.046 l 208.957 189.929 207.352 189.913 206.621
 189.913 c 206.621 189.277 l 207.051 189.277 208.219 189.277 209.188 189.765
 c 209.188 180.734 l 209.188 180.144 209.188 179.913 207.418 179.913 c 206.75
 179.913 l 206.75 179.277 l 207.066 179.292 209.242 179.351 209.902 179.351
 c 210.453 179.351 212.684 179.292 213.07 179.277 c 213.07 179.913 l 212.402
 179.913 l 210.625 179.913 210.625 180.144 210.625 180.734 c h
210.625 190.55 m f*
213.637 167.062 m 213.035 167.062 l 212.984 166.675 212.801 165.628 212.574
 165.449 c 212.438 165.347 211.074 165.347 210.824 165.347 c 207.559 165.347
 l 209.422 166.992 210.035 167.484 211.102 168.32 c 212.414 169.367 213.637
 170.464 213.637 172.148 c 213.637 174.292 211.766 175.605 209.492 175.605
 c 207.301 175.605 205.805 174.066 205.805 172.437 c 205.805 171.527 206.566
 171.441 206.75 171.441 c 207.172 171.441 207.688 171.745 207.688 172.382
 c 207.688 172.699 207.559 173.316 206.637 173.316 c 207.188 174.574 208.395
 174.96 209.227 174.96 c 211 174.96 211.922 173.585 211.922 172.148 c 211.922
 170.605 210.824 169.386 210.254 168.749 c 205.988 164.531 l 205.805 164.37
 205.805 164.331 205.805 163.835 c 213.105 163.835 l h
213.637 167.062 m f*
89.473 257.624 m 89.488 257.691 l 89.508 257.769 l 89.527 257.851 l 89.547
 257.945 l 89.578 258.042 l 89.609 258.148 l 89.641 258.261 l 89.676 258.374
 l 89.719 258.495 l 89.766 258.617 l 89.816 258.745 l 89.867 258.87 l 89.984
 259.128 l 90.125 259.386 l 90.203 259.507 l 90.277 259.632 l 90.367 259.749
 l 90.461 259.863 l 90.551 259.976 l 90.656 260.077 l 90.762 260.175 l 90.875
 260.269 l 90.996 260.351 l 91.121 260.425 l 91.184 260.46 l 91.25 260.492
 l 91.324 260.515 l 91.391 260.542 l 91.461 260.566 l 91.535 260.589 l 91.613
 260.605 l 91.688 260.62 l 91.766 260.628 l 91.848 260.64 l 91.93 260.644
 l 92.012 260.644 l 92.141 260.644 92.754 260.644 93.289 260.316 c 92.574
 260.187 92.059 259.542 92.059 258.933 c 92.059 258.527 92.344 258.031 93.031
 258.031 c 93.598 258.031 94.414 258.488 94.414 259.519 c 94.414 260.855
 92.902 261.206 92.035 261.206 c 90.547 261.206 89.645 259.847 89.344 259.261
 c 88.699 260.949 87.316 261.206 86.582 261.206 c 83.91 261.206 82.445 257.902
 82.445 257.261 c 82.445 257.003 82.699 257.003 82.758 257.003 c 82.957 
257.003 83.039 257.058 83.086 257.285 c 83.957 260.003 85.652 260.644 86.523
 260.644 c 87.012 260.644 87.902 260.417 87.902 258.933 c 87.902 258.14 
87.469 256.417 86.523 252.831 c 86.113 251.242 85.215 250.163 84.086 250.163
 c 83.93 250.163 83.344 250.163 82.809 250.499 c 83.453 250.624 84.012 251.156
 84.012 251.882 c 84.012 252.574 83.453 252.773 83.066 252.773 c 82.293 
252.773 81.652 252.109 81.652 251.285 c 81.652 250.113 82.938 249.597 84.059
 249.597 c 85.758 249.597 86.672 251.394 86.754 251.542 c 87.059 250.597
 87.984 249.597 89.52 249.597 c 92.164 249.597 93.629 252.902 93.629 253.546
 c 93.629 253.8 93.398 253.8 93.316 253.8 c 93.09 253.8 93.031 253.699 92.984
 253.523 c 92.141 250.781 90.398 250.163 89.574 250.163 c 88.57 250.163 
88.16 250.984 88.16 251.859 c 88.16 252.421 88.312 252.984 88.602 254.109
 c h
89.473 257.624 m f*
104.797 264.859 m 104.793 265.222 l 104.781 265.574 l 104.766 265.913 l
 104.746 266.242 l 104.715 266.562 l 104.68 266.867 l 104.633 267.163 l 
104.578 267.452 l 104.512 267.734 l 104.434 268.003 l 104.344 268.269 l 
104.246 268.527 l 104.141 268.781 l 104.016 269.027 l 103.883 269.269 l 
103.734 269.503 l 103.176 270.331 102.07 271.046 100.629 271.046 c 96.473
 271.046 96.473 266.148 96.473 264.859 c 96.473 263.574 96.473 258.781 100.629
 258.781 c 100.629 259.285 l 99.812 259.285 98.719 259.769 98.355 261.242
 c 98.109 262.292 98.109 263.761 98.109 265.089 c 98.109 266.402 98.109 
267.765 98.371 268.749 c 98.754 270.163 99.898 270.542 100.629 270.542 c
 101.602 270.542 102.535 269.952 102.859 268.906 c 103.148 267.945 103.16
 266.648 103.16 265.089 c 103.16 263.761 103.16 262.441 102.93 261.312 c
 102.57 259.683 101.355 259.285 100.629 259.285 c 100.629 258.781 l 104.797
 258.781 104.797 263.574 104.797 264.859 c h
104.797 264.859 m f*
101.547 254.925 m 101.547 255.12 l 101.543 255.136 l 101.543 255.163 l 
101.535 255.179 l 101.535 255.206 l 101.531 255.222 l 101.531 255.234 l 
101.527 255.242 l 101.527 255.257 l 101.52 255.277 l 101.512 255.3 l 101.488
 255.331 l 101.48 255.347 l 101.469 255.363 l 101.453 255.37 l 101.438 255.382
 l 101.422 255.386 l 101.402 255.398 l 101.383 255.402 l 101.355 255.406
 l 101.348 255.413 l 101.336 255.413 l 101.32 255.417 l 101.293 255.417 
l 101.277 255.421 l 101.211 255.421 l 101.195 255.429 l 101.012 255.429 
l 99.859 254.296 98.238 254.281 97.496 254.281 c 97.496 253.636 l 97.93 
253.636 99.113 253.636 100.09 254.132 c 100.09 244.995 l 100.09 244.398 
100.09 244.167 98.301 244.167 c 97.625 244.167 l 97.625 243.523 l 97.945
 243.538 100.148 243.593 100.816 243.593 c 101.371 243.593 103.629 243.538
 104.027 243.523 c 104.027 244.167 l 103.344 244.167 l 101.547 244.167 101.547
 244.398 101.547 244.995 c h
101.547 254.925 m f*
115.648 257.624 m 115.664 257.691 l 115.68 257.769 l 115.707 257.851 l 
115.727 257.945 l 115.758 258.042 l 115.789 258.148 l 115.82 258.261 l 115.855
 258.374 l 115.895 258.495 l 115.941 258.617 l 115.992 258.745 l 116.043
 258.87 l 116.102 258.999 l 116.164 259.128 l 116.23 259.257 l 116.301 259.386
 l 116.375 259.507 l 116.457 259.632 l 116.543 259.749 l 116.633 259.863
 l 116.73 259.976 l 116.832 260.077 l 116.941 260.175 l 117.055 260.269 
l 117.172 260.351 l 117.301 260.425 l 117.363 260.46 l 117.43 260.492 l 
117.5 260.515 l 117.566 260.542 l 117.641 260.566 l 117.711 260.589 l 117.867
 260.62 l 117.941 260.628 l 118.027 260.64 l 118.102 260.644 l 118.191 260.644
 l 118.32 260.644 118.926 260.644 119.465 260.316 c 118.75 260.187 118.238
 259.542 118.238 258.933 c 118.238 258.527 118.52 258.031 119.207 258.031
 c 119.77 258.031 120.594 258.488 120.594 259.519 c 120.594 260.855 119.082
 261.206 118.211 261.206 c 116.723 261.206 115.824 259.847 115.52 259.261
 c 114.875 260.949 113.492 261.206 112.754 261.206 c 110.086 261.206 108.621
 257.902 108.621 257.261 c 108.621 257.003 108.879 257.003 108.934 257.003
 c 109.137 257.003 109.219 257.058 109.266 257.285 c 110.133 260.003 111.832
 260.644 112.695 260.644 c 113.188 260.644 114.078 260.417 114.078 258.933
 c 114.078 258.14 113.648 256.417 112.695 252.831 c 112.289 251.242 111.395
 250.163 110.262 250.163 c 110.109 250.163 109.52 250.163 108.984 250.499
 c 109.629 250.624 110.191 251.156 110.191 251.882 c 110.191 252.574 109.629
 252.773 109.242 252.773 c 108.473 252.773 107.828 252.109 107.828 251.285
 c 107.828 250.113 109.113 249.597 110.234 249.597 c 111.934 249.597 112.852
 251.394 112.934 251.542 c 113.234 250.597 114.16 249.597 115.695 249.597
 c 118.34 249.597 119.805 252.902 119.805 253.546 c 119.805 253.8 119.57
 253.8 119.492 253.8 c 119.266 253.8 119.207 253.699 119.164 253.523 c 118.32
 250.781 116.574 250.163 115.75 250.163 c 114.75 250.163 114.336 250.984
 114.336 251.859 c 114.336 252.421 114.492 252.984 114.777 254.109 c h
115.648 257.624 m f*
130.77 262.406 m 130.164 262.406 l 130.109 262.015 129.926 260.949 129.695
 260.773 c 129.555 260.671 128.176 260.671 127.926 260.671 c 124.621 260.671
 l 126.504 262.331 127.125 262.831 128.207 263.675 c 129.535 264.734 130.77
 265.847 130.77 267.55 c 130.77 269.722 128.875 271.046 126.578 271.046 
c 124.359 271.046 122.848 269.488 122.848 267.843 c 122.848 266.921 123.617
 266.835 123.805 266.835 c 124.23 266.835 124.75 267.144 124.75 267.785 
c 124.75 268.105 124.621 268.734 123.691 268.734 c 124.246 270.003 125.465
 270.394 126.309 270.394 c 128.105 270.394 129.035 269.003 129.035 267.55
 c 129.035 265.992 127.926 264.757 127.348 264.113 c 123.031 259.843 l 122.848
 259.683 122.848 259.64 122.848 259.144 c 130.234 259.144 l h
130.77 262.406 m f*
130.77 246.785 m 130.164 246.785 l 130.109 246.394 129.926 245.335 129.695
 245.152 c 129.555 245.05 128.176 245.05 127.926 245.05 c 124.621 245.05
 l 126.504 246.714 127.125 247.21 128.207 248.054 c 129.535 249.117 130.77
 250.226 130.77 251.929 c 130.77 254.101 128.875 255.429 126.578 255.429
 c 124.359 255.429 122.848 253.87 122.848 252.222 c 122.848 251.3 123.617
 251.214 123.805 251.214 c 124.23 251.214 124.75 251.523 124.75 252.167 
c 124.75 252.484 124.621 253.113 123.691 253.113 c 124.246 254.382 125.465
 254.773 126.309 254.773 c 128.105 254.773 129.035 253.386 129.035 251.929
 c 129.035 250.37 127.926 249.136 127.348 248.492 c 123.031 244.222 l 122.848
 244.062 122.848 244.023 122.848 243.523 c 130.234 243.523 l h
130.77 246.785 m f*
32.797 51.992 m 32.797 52.031 l 32.793 52.042 l 32.793 52.046 l 32.789 
52.054 l 32.785 52.066 l 32.777 52.074 l 32.762 52.105 l 32.75 52.12 l 32.742
 52.132 l 32.727 52.148 l 32.719 52.16 l 32.703 52.179 l 32.695 52.187 l
 32.691 52.199 l 32.664 52.226 l 32.656 52.238 l 32.637 52.257 l 32.625 
52.273 l 32.613 52.281 l 32.605 52.296 l 32.59 52.308 l 32.574 52.324 l 
32.566 52.335 l 32.555 52.351 l 32.539 52.363 l 32.527 52.378 l 32.512 52.39
 l 32.492 52.41 l 32.48 52.425 l 32.461 52.441 l 32.449 52.456 l 32.43 52.476
 l 32.41 52.492 l 29.547 55.382 28.816 59.714 28.816 63.222 c 28.816 67.214
 29.684 71.21 32.504 74.07 c 32.797 74.351 32.797 74.394 32.797 74.464 c
 32.797 74.624 32.715 74.691 32.574 74.691 c 32.348 74.691 30.285 73.136
 28.93 70.226 c 27.758 67.699 27.484 65.152 27.484 63.222 c 27.484 61.433
 27.734 58.667 28.996 56.07 c 30.367 53.249 32.348 51.761 32.574 51.761 
c 32.715 51.761 32.797 51.824 32.797 51.992 c h
32.797 51.992 m f*
44.656 64.831 m 44.652 65.171 l 44.645 65.515 l 44.637 65.863 l 44.625 
66.202 l 44.605 66.546 l 44.578 66.886 l 44.539 67.23 l 44.496 67.566 l 
44.445 67.902 l 44.379 68.238 l 44.305 68.566 l 44.219 68.898 l 44.117 69.23
 l 44.008 69.554 l 43.879 69.874 l 43.809 70.035 l 43.734 70.191 l 42.684
 72.402 40.797 72.769 39.836 72.769 c 38.461 72.769 36.785 72.171 35.844
 70.035 c 35.109 68.452 34.992 66.663 34.992 64.831 c 34.992 63.109 35.09
 61.046 36.027 59.304 c 37.016 57.449 38.691 56.992 39.812 56.992 c 39.812
 57.492 l 38.918 57.492 37.562 58.066 37.152 60.269 c 36.898 61.64 36.898
 63.749 36.898 65.109 c 36.898 66.574 36.898 68.085 37.086 69.324 c 37.52
 72.058 39.238 72.261 39.812 72.261 c 40.566 72.261 42.086 71.851 42.52 
69.577 c 42.75 68.296 42.75 66.546 42.75 65.109 c 42.75 63.386 42.75 61.827
 42.496 60.359 c 42.152 58.183 40.844 57.492 39.812 57.492 c 39.812 56.992
 l 41.051 56.992 42.793 57.468 43.805 59.652 c 44.539 61.23 44.656 63.015
 44.656 64.831 c h
44.656 64.831 m f*
50.242 57.515 m 50.242 57.652 l 50.238 57.792 l 50.23 57.925 l 50.223 58.054
 l 50.203 58.179 l 50.188 58.296 l 50.164 58.417 l 50.145 58.527 l 50.113
 58.64 l 50.086 58.745 l 50.055 58.847 l 50.02 58.941 l 49.98 59.035 l 49.941
 59.12 l 49.895 59.21 l 49.848 59.288 l 49.797 59.363 l 49.746 59.433 l 
49.691 59.499 l 49.637 59.558 l 49.578 59.62 l 49.516 59.671 l 49.453 59.714
 l 49.387 59.761 l 49.32 59.8 l 49.246 59.831 l 49.176 59.859 l 49.098 59.882
 l 48.941 59.913 l 48.863 59.917 l 48.777 59.921 l 48.02 59.921 47.559 59.347
 47.559 58.706 c 47.559 58.089 48.02 57.492 48.777 57.492 c 49.051 57.492
 49.352 57.585 49.582 57.788 c 49.648 57.835 49.68 57.859 49.695 57.859 
c 49.719 57.859 49.742 57.835 49.742 57.515 c 49.742 55.816 48.941 54.441
 48.184 53.683 c 47.93 53.437 47.93 53.386 47.93 53.32 c 47.93 53.156 48.043
 53.07 48.16 53.07 c 48.41 53.07 50.242 54.831 50.242 57.515 c h
50.242 57.515 m f*
66.305 64.831 m 66.305 65.171 l 66.301 65.515 l 66.293 65.863 l 66.277 
66.202 l 66.254 66.546 l 66.227 66.886 l 66.191 67.23 l 66.148 67.566 l 
66.094 67.902 l 66.027 68.238 l 65.957 68.566 l 65.867 68.898 l 65.77 69.23
 l 65.656 69.554 l 65.527 69.874 l 65.457 70.035 l 65.383 70.191 l 64.336
 72.402 62.453 72.769 61.484 72.769 c 60.113 72.769 58.438 72.171 57.496
 70.035 c 56.762 68.452 56.648 66.663 56.648 64.831 c 56.648 63.109 56.738
 61.046 57.684 59.304 c 58.668 57.449 60.344 56.992 61.469 56.992 c 61.469
 57.492 l 60.574 57.492 59.215 58.066 58.805 60.269 c 58.555 61.64 58.555
 63.749 58.555 65.109 c 58.555 66.574 58.555 68.085 58.738 69.324 c 59.172
 72.058 60.891 72.261 61.469 72.261 c 62.223 72.261 63.742 71.851 64.168
 69.577 c 64.398 68.296 64.398 66.546 64.398 65.109 c 64.398 63.386 64.398
 61.827 64.145 60.359 c 63.801 58.183 62.492 57.492 61.469 57.492 c 61.469
 56.992 l 62.707 56.992 64.445 57.468 65.457 59.652 c 66.191 61.23 66.305
 63.015 66.305 64.831 c h
66.305 64.831 m f*
73.867 63.222 m 73.867 63.394 l 73.859 63.753 l 73.855 63.941 l 73.836 
64.327 l 73.809 64.734 l 73.773 65.156 l 73.723 65.593 l 73.66 66.042 l 
73.582 66.507 l 73.496 66.976 l 73.391 67.449 l 73.266 67.933 l 73.121 68.421
 l 72.965 68.913 l 72.781 69.406 l 72.688 69.648 l 72.586 69.894 l 72.473
 70.136 l 72.359 70.382 l 70.98 73.199 69.012 74.691 68.781 74.691 c 68.648
 74.691 68.551 74.601 68.551 74.464 c 68.551 74.394 68.551 74.351 68.984
 73.937 c 71.234 71.671 72.543 68.019 72.543 63.222 c 72.543 59.304 71.695
 55.269 68.848 52.378 c 68.551 52.105 68.551 52.054 68.551 51.992 c 68.551
 51.851 68.648 51.761 68.781 51.761 c 69.012 51.761 71.07 53.32 72.43 56.23
 c 73.594 58.749 73.867 61.296 73.867 63.222 c h
73.867 63.222 m f*
303.02 63.324 m 303.035 63.398 l 303.059 63.484 l 303.082 63.577 l 303.105
 63.683 l 303.141 63.792 l 303.176 63.913 l 303.211 64.042 l 303.25 64.167
 l 303.297 64.3 l 303.348 64.441 l 303.406 64.585 l 303.465 64.722 l 303.527
 64.867 l 303.598 65.011 l 303.672 65.156 l 303.754 65.304 l 303.84 65.441
 l 303.93 65.581 l 304.027 65.714 l 304.133 65.839 l 304.234 65.968 l 304.352
 66.085 l 304.473 66.195 l 304.602 66.296 l 304.734 66.39 l 304.879 66.472
 l 304.945 66.511 l 305.023 66.546 l 305.102 66.574 l 305.18 66.605 l 305.258
 66.632 l 305.34 66.656 l 305.426 66.675 l 305.516 66.691 l 305.602 66.702
 l 305.695 66.714 l 305.785 66.722 l 305.879 66.722 l 306.023 66.722 306.711
 66.722 307.312 66.351 c 306.508 66.206 305.93 65.48 305.93 64.792 c 305.93
 64.335 306.25 63.781 307.023 63.781 c 307.66 63.781 308.582 64.296 308.582
 65.452 c 308.582 66.956 306.879 67.351 305.902 67.351 c 304.23 67.351 303.215
 65.824 302.875 65.163 c 302.152 67.062 300.594 67.351 299.766 67.351 c 
296.762 67.351 295.113 63.636 295.113 62.913 c 295.113 62.624 295.402 62.624
 295.469 62.624 c 295.691 62.624 295.785 62.687 295.836 62.941 c 296.816
 65.995 298.727 66.722 299.703 66.722 c 300.254 66.722 301.254 66.464 301.254
 64.792 c 301.254 63.902 300.77 61.964 299.703 57.929 c 299.242 56.14 298.234
 54.933 296.961 54.933 c 296.785 54.933 296.125 54.933 295.523 55.308 c 
296.25 55.445 296.879 56.046 296.879 56.863 c 296.879 57.64 296.25 57.867
 295.812 57.867 c 294.945 57.867 294.223 57.12 294.223 56.195 c 294.223 
54.874 295.668 54.296 296.93 54.296 c 298.84 54.296 299.871 56.316 299.965
 56.484 c 300.305 55.417 301.348 54.296 303.07 54.296 c 306.047 54.296 307.695
 58.011 307.695 58.734 c 307.695 59.023 307.434 59.023 307.344 59.023 c 
307.09 59.023 307.023 58.906 306.973 58.71 c 306.023 55.624 304.062 54.933
 303.137 54.933 c 302.008 54.933 301.543 55.851 301.543 56.835 c 301.543
 57.472 301.719 58.101 302.043 59.37 c h
303.02 63.324 m f*
316.602 63.132 m 316.602 63.351 l 316.598 63.37 l 316.598 63.406 l 316.59
 63.421 l 316.59 63.449 l 316.586 63.468 l 316.586 63.48 l 316.578 63.495
 l 316.578 63.507 l 316.574 63.531 l 316.562 63.554 l 316.551 63.574 l 316.527
 63.605 l 316.516 63.624 l 316.5 63.636 l 316.48 63.648 l 316.465 63.66 
l 316.441 63.663 l 316.418 63.671 l 316.391 63.683 l 316.367 63.683 l 316.348
 63.687 l 316.332 63.687 l 316.32 63.695 l 316.25 63.695 l 316.227 63.699
 l 316 63.699 l 314.703 62.425 312.883 62.41 312.047 62.41 c 312.047 61.687
 l 312.535 61.687 313.867 61.687 314.965 62.245 c 314.965 51.96 l 314.965
 51.292 314.965 51.031 312.949 51.031 c 312.191 51.031 l 312.191 50.308 
l 312.551 50.324 315.027 50.386 315.781 50.386 c 316.406 50.386 318.945 
50.324 319.391 50.308 c 319.391 51.031 l 318.621 51.031 l 316.602 51.031
 316.602 51.292 316.602 51.96 c h
316.602 63.132 m f*
51.375 314.753 m 51.391 314.827 l 51.414 314.913 l 51.438 315.007 l 51.457
 315.109 l 51.492 315.222 l 51.527 315.343 l 51.559 315.468 l 51.602 315.597
 l 51.645 315.73 l 51.695 315.867 l 51.754 316.011 l 51.809 316.152 l 51.871
 316.296 l 51.938 316.441 l 52.012 316.585 l 52.09 316.73 l 52.176 316.87
 l 52.262 317.007 l 52.355 317.14 l 52.559 317.398 l 52.672 317.511 l 52.789
 317.62 l 52.914 317.726 l 53.043 317.82 l 53.188 317.898 l 53.254 317.941
 l 53.328 317.976 l 53.406 318.003 l 53.48 318.035 l 53.559 318.062 l 53.637
 318.085 l 53.723 318.101 l 53.809 318.12 l 53.891 318.132 l 53.98 318.144
 l 54.07 318.148 l 54.164 318.148 l 54.305 318.148 54.977 318.148 55.562
 317.777 c 54.777 317.632 54.215 316.91 54.215 316.222 c 54.215 315.765 
54.523 315.21 55.281 315.21 c 55.902 315.21 56.797 315.722 56.797 316.882
 c 56.797 318.386 55.141 318.781 54.184 318.781 c 52.555 318.781 51.566 
317.253 51.234 316.593 c 50.527 318.492 49.008 318.781 48.203 318.781 c 
45.273 318.781 43.664 315.066 43.664 314.339 c 43.664 314.05 43.945 314.05
 44.008 314.05 c 44.227 314.05 44.316 314.117 44.367 314.37 c 45.324 317.425
 47.188 318.148 48.141 318.148 c 48.676 318.148 49.652 317.894 49.652 316.222
 c 49.652 315.331 49.18 313.39 48.141 309.359 c 47.688 307.57 46.707 306.359
 45.465 306.359 c 45.293 306.359 44.652 306.359 44.062 306.738 c 44.77 306.874
 45.387 307.476 45.387 308.292 c 45.387 309.07 44.77 309.292 44.348 309.292
 c 43.5 309.292 42.793 308.546 42.793 307.62 c 42.793 306.3 44.207 305.722
 45.438 305.722 c 47.297 305.722 48.305 307.742 48.395 307.91 c 48.727 306.847
 49.742 305.722 51.426 305.722 c 54.328 305.722 55.934 309.437 55.934 310.163
 c 55.934 310.452 55.68 310.452 55.59 310.452 c 55.344 310.452 55.281 310.335
 55.23 310.14 c 54.305 307.054 52.391 306.359 51.488 306.359 c 50.387 306.359
 49.934 307.281 49.934 308.265 c 49.934 308.902 50.105 309.531 50.422 310.8
 c h
51.375 314.753 m f*
67.965 305.41 m 67.297 305.41 l 67.242 304.964 67.039 303.773 66.785 303.57
 c 66.637 303.452 65.117 303.452 64.844 303.452 c 61.219 303.452 l 63.285
 305.324 63.973 305.886 65.152 306.835 c 66.609 308.031 67.965 309.277 67.965
 311.199 c 67.965 313.636 65.887 315.128 63.363 315.128 c 60.93 315.128 
59.27 313.374 59.27 311.523 c 59.27 310.492 60.117 310.386 60.32 310.386
 c 60.789 310.386 61.359 310.734 61.359 311.456 c 61.359 311.816 61.219 
312.523 60.195 312.523 c 60.805 313.952 62.145 314.398 63.07 314.398 c 65.039
 314.398 66.062 312.831 66.062 311.199 c 66.062 309.437 64.844 308.05 64.211
 307.327 c 59.473 302.523 l 59.27 302.343 59.27 302.296 59.27 301.734 c 
67.375 301.734 l h
67.965 305.41 m f*
Q Q
showpage
%%Trailer
end restore
%%EOF
