<?xml version="1.0" encoding="UTF-8" standalone="no"?>
<!-- Created with Inkscape (http://www.inkscape.org/) -->

<svg
   xmlns:dc="http://purl.org/dc/elements/1.1/"
   xmlns:cc="http://creativecommons.org/ns#"
   xmlns:rdf="http://www.w3.org/1999/02/22-rdf-syntax-ns#"
   xmlns:svg="http://www.w3.org/2000/svg"
   xmlns="http://www.w3.org/2000/svg"
   xmlns:sodipodi="http://sodipodi.sourceforge.net/DTD/sodipodi-0.dtd"
   xmlns:inkscape="http://www.inkscape.org/namespaces/inkscape"
   width="95.807907mm"
   height="15.46325mm"
   viewBox="0 0 339.47684 54.791044"
   id="svg7741"
   version="1.1"
   inkscape:version="0.91 r13725"
   sodipodi:docname="LoopTransformator.svg">
  <defs
     id="defs7743">
    <marker
       inkscape:stockid="Arrow1Lend"
       orient="auto"
       refY="0"
       refX="0"
       id="marker7574"
       style="overflow:visible"
       inkscape:isstock="true">
      <path
         inkscape:connector-curvature="0"
         id="path7576"
         d="M 0,0 5,-5 -12.5,0 5,5 0,0 Z"
         style="fill:#000000;fill-opacity:1;fill-rule:evenodd;stroke:#000000;stroke-width:1pt;stroke-opacity:1"
         transform="matrix(-0.8,0,0,-0.8,-10,0)" />
    </marker>
    <marker
       inkscape:stockid="Arrow1Lstart"
       orient="auto"
       refY="0"
       refX="0"
       id="Arrow1Lstart"
       style="overflow:visible"
       inkscape:isstock="true">
      <path
         inkscape:connector-curvature="0"
         id="path4186"
         d="M 0,0 5,-5 -12.5,0 5,5 0,0 Z"
         style="fill:#000000;fill-opacity:1;fill-rule:evenodd;stroke:#000000;stroke-width:1pt;stroke-opacity:1"
         transform="matrix(0.8,0,0,0.8,10,0)" />
    </marker>
  </defs>
  <sodipodi:namedview
     id="base"
     pagecolor="#ffffff"
     bordercolor="#666666"
     borderopacity="1.0"
     inkscape:pageopacity="0.0"
     inkscape:pageshadow="2"
     inkscape:zoom="0.35"
     inkscape:cx="958.00463"
     inkscape:cy="-87.858646"
     inkscape:document-units="px"
     inkscape:current-layer="layer1"
     showgrid="false"
     inkscape:window-width="861"
     inkscape:window-height="621"
     inkscape:window-x="37"
     inkscape:window-y="35"
     inkscape:window-maximized="0"
     fit-margin-top="0"
     fit-margin-left="0"
     fit-margin-right="0"
     fit-margin-bottom="0" />
  <metadata
     id="metadata7746">
    <rdf:RDF>
      <cc:Work
         rdf:about="">
        <dc:format>image/svg+xml</dc:format>
        <dc:type
           rdf:resource="http://purl.org/dc/dcmitype/StillImage" />
        <dc:title></dc:title>
      </cc:Work>
    </rdf:RDF>
  </metadata>
  <g
     inkscape:label="Layer 1"
     inkscape:groupmode="layer"
     id="layer1"
     transform="translate(-130.26159,-279.87898)">
    <rect
       style="fill:none;fill-opacity:1;fill-rule:evenodd;stroke:#000000;stroke-width:0.35560209px;stroke-linecap:butt;stroke-linejoin:miter;stroke-opacity:1"
       id="rect3336"
       width="120.7589"
       height="52.673859"
       x="348.80173"
       y="281.81836" />
    <path
       style="fill:none;fill-rule:evenodd;stroke:#000000;stroke-width:0.42299566px;stroke-linecap:butt;stroke-linejoin:miter;stroke-opacity:1"
       d="m 348.44535,297.51833 119.28963,0"
       id="path4148"
       inkscape:connector-curvature="0" />
    <text
       xml:space="preserve"
       style="font-style:normal;font-weight:normal;font-size:8.75px;line-height:125%;font-family:sans-serif;letter-spacing:0px;word-spacing:0px;fill:#000000;fill-opacity:1;stroke:none;stroke-width:1px;stroke-linecap:butt;stroke-linejoin:miter;stroke-opacity:1"
       x="389.38647"
       y="293.7757"
       id="text4150"
       sodipodi:linespacing="125%"><tspan
         sodipodi:role="line"
         id="tspan4152"
         x="389.38647"
         y="293.7757">DetailAst</tspan></text>
    <text
       xml:space="preserve"
       style="font-style:normal;font-weight:normal;font-size:7px;line-height:125%;font-family:sans-serif;letter-spacing:0px;word-spacing:0px;fill:#000000;fill-opacity:1;stroke:none;stroke-width:1px;stroke-linecap:butt;stroke-linejoin:miter;stroke-opacity:1"
       x="353.04153"
       y="306.21069"
       id="text4166"
       sodipodi:linespacing="125%"><tspan
         sodipodi:role="line"
         x="353.04153"
         y="306.21069"
         id="tspan4180">- childrens</tspan><tspan
         sodipodi:role="line"
         x="353.04153"
         y="314.96069"
         id="tspan7839">- isLoop</tspan></text>
    <rect
       style="fill:none;fill-opacity:1;fill-rule:evenodd;stroke:#000000;stroke-width:0.37693527px;stroke-linecap:butt;stroke-linejoin:miter;stroke-opacity:1"
       id="rect3336-6"
       width="135.73756"
       height="52.652523"
       x="130.6286"
       y="280.06744" />
    <path
       style="fill:none;fill-rule:evenodd;stroke:#000000;stroke-width:0.44712889px;stroke-linecap:butt;stroke-linejoin:miter;stroke-opacity:1"
       d="m 130.26159,295.25678 133.28962,0"
       id="path4148-3"
       inkscape:connector-curvature="0" />
    <text
       xml:space="preserve"
       style="font-style:normal;font-weight:normal;font-size:8.75px;line-height:125%;font-family:sans-serif;letter-spacing:0px;word-spacing:0px;fill:#000000;fill-opacity:1;stroke:none;stroke-width:1px;stroke-linecap:butt;stroke-linejoin:miter;stroke-opacity:1"
       x="157.83873"
       y="290.30704"
       id="text4150-0"
       sodipodi:linespacing="125%"><tspan
         sodipodi:role="line"
         id="tspan4152-9"
         x="157.83873"
         y="290.30704">LoopTransformator</tspan></text>
    <text
       xml:space="preserve"
       style="font-style:normal;font-weight:normal;font-size:7px;line-height:125%;font-family:sans-serif;letter-spacing:0px;word-spacing:0px;fill:#000000;fill-opacity:1;stroke:none;stroke-width:1px;stroke-linecap:butt;stroke-linejoin:miter;stroke-opacity:1"
       x="134.85777"
       y="304.44916"
       id="text4166-7"
       sodipodi:linespacing="125%"><tspan
         sodipodi:role="line"
         x="134.85777"
         y="304.44916"
         id="tspan4180-8">+ doLoopDistribution()</tspan><tspan
         sodipodi:role="line"
         x="134.85777"
         y="313.19916"
         id="tspan7835">+ doLoopFusion()</tspan><tspan
         sodipodi:role="line"
         x="134.85777"
         y="321.94916"
         id="tspan7837">+ doLoopTiling()</tspan></text>
    <path
       style="fill:none;fill-rule:evenodd;stroke:#000000;stroke-width:0.69999999;stroke-linecap:butt;stroke-linejoin:miter;stroke-miterlimit:4;stroke-dasharray:4.2, 0.7;stroke-dashoffset:0;stroke-opacity:1;marker-start:url(#Arrow1Lstart)"
       d="m 348.31476,305.68661 -82.02439,0"
       id="path4677"
       inkscape:connector-curvature="0" />
    <text
       xml:space="preserve"
       style="font-style:normal;font-weight:normal;font-size:14px;line-height:125%;font-family:sans-serif;letter-spacing:0px;word-spacing:0px;fill:#000000;fill-opacity:1;stroke:none;stroke-width:1px;stroke-linecap:butt;stroke-linejoin:miter;stroke-opacity:1"
       x="291.74622"
       y="299.32263"
       id="text3370"
       sodipodi:linespacing="125%"><tspan
         sodipodi:role="line"
         id="tspan3372"
         x="291.74622"
         y="299.32263"
         style="font-size:7px">Use</tspan></text>
  </g>
</svg>
